already fit
already fit
already fit
already fit
already fit
already fit
already fit
SPECTRE  Overhead==
Overhead of  RF   ==> 12.65415546252395
Overhead of  DT   ==> 18.956766934033443
Overhead of  SVM  ==> 22.868648934963367
Overhead of  ENS  ==> 7.38090205949527
MELTDOWN Overhead==
Overhead of  RF   ==> 0.11536426246033143
Overhead of  DT   ==> -0.07361319564344435
Overhead of  SVM  ==> 0.024184666417428762
Overhead of  ENS  ==> 0.0646639538321867
